# outputs the expected snapshot

    Code
      full()
    Output
      # A tibble: 162,116 x 35
         rowid technology target_company_id subsidiary_company_id target_company_name 
         <int> <fct>                  <int>                 <int> <chr>               
       1     1 renewables            219235                219235 1 Slater Drive Llc  
       2     2 gas                   219072                219072 1080 Chestnut Stree~
       3     3 renewables            219108                219108 123 Investment Mana~
       4     4 renewables            219108                219108 123 Investment Mana~
       5     5 renewables            219108                219108 123 Investment Mana~
       6     6 renewables            219121                219121 1330 Campus Parkway~
       7     7 renewables            219129                219129 1382839 Ontario Inc 
       8     8 renewables            219178                219178 174 Power Global Co~
       9     9 renewables            219178                219178 174 Power Global Co~
      10    10 renewables            219178                219178 174 Power Global Co~
      # ... with 162,106 more rows, and 30 more variables:
      #   subsidiary_company_name <chr>, SBTI <dbl>, CA100 <dbl>, market_cap <dbl>,
      #   company_status <chr>, state_owned_entity_type <lgl>, shares_weight <dbl>,
      #   source_id <dbl>, asset_name <chr>, start_year <dbl>, dual <dbl>,
      #   status_x <chr>, asset_location <chr>, comp_cap_2018q4 <dbl>,
      #   comp_cap_2018_actual <dbl>, comp_cap_2018_plan <dbl>, status_y <chr>,
      #   comp_cap_2020q3 <dbl>, comp_cap_2020_actual <dbl>, source_id_cnt <dbl>, ...
